%YAML 1.1
%TAG !u! tag:unity3d.com,2011:
--- !u!1 &7859308088337308407
GameObject:
  m_ObjectHideFlags: 0
  m_CorrespondingSourceObject: {fileID: 0}
  m_PrefabInstance: {fileID: 0}
  m_PrefabAsset: {fileID: 0}
  serializedVersion: 6
  m_Component:
  - component: {fileID: 7859308088337308406}
  - component: {fileID: 1078971952}
  m_Layer: 0
  m_Name: Basin
  m_TagString: Untagged
  m_Icon: {fileID: 0}
  m_NavMeshLayer: 0
  m_StaticEditorFlags: 0
  m_IsActive: 1
--- !u!4 &7859308088337308406
Transform:
  m_ObjectHideFlags: 0
  m_CorrespondingSourceObject: {fileID: 0}
  m_PrefabInstance: {fileID: 0}
  m_PrefabAsset: {fileID: 0}
  m_GameObject: {fileID: 7859308088337308407}
  m_LocalRotation: {x: 0, y: 0, z: 0, w: 1}
  m_LocalPosition: {x: 0, y: 0, z: 0}
  m_LocalScale: {x: 1, y: 1, z: 1}
  m_Children:
  - {fileID: 7681846211249691059}
  m_Father: {fileID: 0}
  m_RootOrder: 0
  m_LocalEulerAnglesHint: {x: 0, y: 0, z: 0}
--- !u!114 &1078971952
MonoBehaviour:
  m_ObjectHideFlags: 0
  m_CorrespondingSourceObject: {fileID: 0}
  m_PrefabInstance: {fileID: 0}
  m_PrefabAsset: {fileID: 0}
  m_GameObject: {fileID: 7859308088337308407}
  m_Enabled: 1
  m_EditorHideFlags: 0
  m_Script: {fileID: 11500000, guid: 78be057542d906749aec57e19087c0c8, type: 3}
  m_Name: 
  m_EditorClassIdentifier: 
  rotation_Speed: 200
  Obj_Scale_For_AR: 0.03
  zPos_Of_Obj: 1.35
  y_Rotation: -90
  minFov: 40
  maxFov: 90
--- !u!1001 &7859308087470636632
PrefabInstance:
  m_ObjectHideFlags: 0
  serializedVersion: 2
  m_Modification:
    m_TransformParent: {fileID: 7859308088337308406}
    m_Modifications:
    - target: {fileID: -8679921383154817045, guid: f2c6da0f79026af4a9298bb88144678c, type: 3}
      propertyPath: m_RootOrder
      value: 0
      objectReference: {fileID: 0}
    - target: {fileID: -8679921383154817045, guid: f2c6da0f79026af4a9298bb88144678c, type: 3}
      propertyPath: m_LocalScale.x
      value: 1
      objectReference: {fileID: 0}
    - target: {fileID: -8679921383154817045, guid: f2c6da0f79026af4a9298bb88144678c, type: 3}
      propertyPath: m_LocalScale.y
      value: 1
      objectReference: {fileID: 0}
    - target: {fileID: -8679921383154817045, guid: f2c6da0f79026af4a9298bb88144678c, type: 3}
      propertyPath: m_LocalScale.z
      value: 1
      objectReference: {fileID: 0}
    - target: {fileID: -8679921383154817045, guid: f2c6da0f79026af4a9298bb88144678c, type: 3}
      propertyPath: m_LocalPosition.x
      value: 0
      objectReference: {fileID: 0}
    - target: {fileID: -8679921383154817045, guid: f2c6da0f79026af4a9298bb88144678c, type: 3}
      propertyPath: m_LocalPosition.y
      value: -2
      objectReference: {fileID: 0}
    - target: {fileID: -8679921383154817045, guid: f2c6da0f79026af4a9298bb88144678c, type: 3}
      propertyPath: m_LocalPosition.z
      value: 0
      objectReference: {fileID: 0}
    - target: {fileID: -8679921383154817045, guid: f2c6da0f79026af4a9298bb88144678c, type: 3}
      propertyPath: m_LocalRotation.w
      value: 0.69933987
      objectReference: {fileID: 0}
    - target: {fileID: -8679921383154817045, guid: f2c6da0f79026af4a9298bb88144678c, type: 3}
      propertyPath: m_LocalRotation.x
      value: -0.10451704
      objectReference: {fileID: 0}
    - target: {fileID: -8679921383154817045, guid: f2c6da0f79026af4a9298bb88144678c, type: 3}
      propertyPath: m_LocalRotation.y
      value: -0.69933987
      objectReference: {fileID: 0}
    - target: {fileID: -8679921383154817045, guid: f2c6da0f79026af4a9298bb88144678c, type: 3}
      propertyPath: m_LocalRotation.z
      value: 0.10451704
      objectReference: {fileID: 0}
    - target: {fileID: -8679921383154817045, guid: f2c6da0f79026af4a9298bb88144678c, type: 3}
      propertyPath: m_LocalEulerAnglesHint.x
      value: 0
      objectReference: {fileID: 0}
    - target: {fileID: -8679921383154817045, guid: f2c6da0f79026af4a9298bb88144678c, type: 3}
      propertyPath: m_LocalEulerAnglesHint.y
      value: -90
      objectReference: {fileID: 0}
    - target: {fileID: -8679921383154817045, guid: f2c6da0f79026af4a9298bb88144678c, type: 3}
      propertyPath: m_LocalEulerAnglesHint.z
      value: 17
      objectReference: {fileID: 0}
    - target: {fileID: 919132149155446097, guid: f2c6da0f79026af4a9298bb88144678c, type: 3}
      propertyPath: m_Name
      value: Basin
      objectReference: {fileID: 0}
    - target: {fileID: 919132149155446097, guid: f2c6da0f79026af4a9298bb88144678c, type: 3}
      propertyPath: m_IsActive
      value: 1
      objectReference: {fileID: 0}
    m_RemovedComponents: []
  m_SourcePrefab: {fileID: 100100000, guid: f2c6da0f79026af4a9298bb88144678c, type: 3}
--- !u!4 &7681846211249691059 stripped
Transform:
  m_CorrespondingSourceObject: {fileID: -8679921383154817045, guid: f2c6da0f79026af4a9298bb88144678c, type: 3}
  m_PrefabInstance: {fileID: 7859308087470636632}
  m_PrefabAsset: {fileID: 0}
