%YAML 1.1
%TAG !u! tag:unity3d.com,2011:
--- !u!114 &11400000
MonoBehaviour:
  m_ObjectHideFlags: 0
  m_CorrespondingSourceObject: {fileID: 0}
  m_PrefabInstance: {fileID: 0}
  m_PrefabAsset: {fileID: 0}
  m_GameObject: {fileID: 0}
  m_Enabled: 1
  m_EditorHideFlags: 0
  m_Script: {fileID: 11500000, guid: 2160bf67d3b9dc34587ffe0ca0696fe1, type: 3}
  m_Name: Basin
  m_EditorClassIdentifier: 
  product_Obj: {fileID: 919132149155446097, guid: f2c6da0f79026af4a9298bb88144678c, type: 3}
  product_Name: Basin
  product_Price: $150
  product_Description: Lorem Ipsum is simply dummy text of the printing and typesetting
    industry. Lorem Ipsum has been the industry's standard dummy text ever since
    the 1500s, when an unknown printer took a galley of type and scrambled it to
    make a type specimen book. It has survived not only five centuries, but also
    the leap into electronic typesetting, remaining essentially unchanged. It was
    popularised in the 1960s with the release of Letraset sheets containing Lorem
    Ipsum passages, and more recently with desktop publishing software like Aldus
    PageMaker including versions of Lorem Ipsum.
