%YAML 1.1
%TAG !u! tag:unity3d.com,2011:
--- !u!1045 &1
EditorBuildSettings:
  m_ObjectHideFlags: 0
  serializedVersion: 2
  m_Scenes:
  - enabled: 1
    path: Assets/Scenes/UI_Scene.unity
    guid: 05d039bedb880b24bb627c79231a9aaa
  - enabled: 1
    path: Assets/Scenes/AR_Scene.unity
    guid: 1ffe53c5535652547a885a995e8ac619
  m_configObjects:
    UnityEditor.XR.ARCore.ARCoreSettings: {fileID: 11400000, guid: 4bf5bab7a6e1817458d42a8f6c9d298d, type: 2}
    com.unity.xr.management.loader_settings: {fileID: 11400000, guid: 20c89cae4e0134d4a97ca8498ab4e18a, type: 2}
